{
    "id":"nexerelin",
    "name":"Nexerelin",
    "author":"Histidine (original by Zaphide)",
    "version":"0.8.3e",
    "description":"Join a faction and conquer the Sector!",
    "gameVersion":"0.8.1a",
    "totalConversion":false,
    "jars":["jars/ExerelinCore.jar"],
    "modPlugin":"exerelin.plugins.ExerelinModPlugin",
    "replace":[],
}