{
	"miningProductionMult":2,
	"cacheSizeMult":1.0,
	"baseCacheChance":0.1,
	"baseAccidentChance":0.32,
	"xpPerMiningStrength":50,
	"machineryPerMiningStrength":0.4,
	"baseAccidentCRLoss":0.1,
	"baseAccidentHullDamage":400.0,
	"exhaustionPer100MiningStrength":0.04,
	"renewRatePerDay":0.001,
	"planetDangerMult":1.25,
	"planetExhaustionMult":0.75,
	"planetRenewMult":1.25,
}
