{
    "uniqueModClassName":"data.scripts.SSPModPlugin",
    "playableFaction":false,
    "pirateFaction":true,
    "corvusCompatible":true,
    "noHomeworld":true,
    "showIntelEvenIfDead":true,
    
    "spawnPatrols":true,
    "spawnPiratesAndMercs":"false",

    "crewExpereinceLevelIncreaseChance":0.0,
    "baseFleetCostMultiplier":1.0,

    "customRebelFaction":"",
    "customRebelFleetId":"",
    "rebelFleetSuffix":"Splinter Group",

    "positiveDiplomacyExtra":0,
    "negativeDiplomacyExtra":0,
    "startRelationships":{ "tritachyon":0.1, "templars":-0.1 }, # in Corvus they're also only suspicious with League and Exi but meh
    "morality":"evil",
    
    "alignments":{
        "corporate":0.5,
        "technocratic":0.5,
        "ideological":0.5,
        "diplomatic":-1,
    },
    
    "freeMarket":true,
    
    "vengeanceLevelNames":["Grudge", "Elimination"],
    "vengeanceFleetNames":["Executors", "Kill-Fleet"],
    "vengeanceFleetNamesSingle":["Executors", "a Kill-Fleet"],
}