{
    "playableFaction":true,
    "corvusCompatible":true,
    
    "baseFleetCostMultiplier":1.0,

    "customRebelFaction":"",
    "customRebelFleetId":"",
    "rebelFleetSuffix":"Malefactors",

    "asteroidMiningFleetName":"Metallicus",
    "gasMiningFleetName":"Cuniculator",
    "logisticsFleetName":"Prosecutae",
    "invasionFleetName":"Exercitus",
    "responseFleetName":"Praesidium",
    "invasionSupportFleetName":"Classis",
    "defenceFleetName":"Custodia",
    "suppressionFleetName":"Poena",
    "stationName":"Castrum",

    "startRelationships":{ "hegemony": -0.8 },
    "maxRelationships":{ "hegemony":-0.4, },
    "diplomacyPositiveChance":{ "hegemony":0.75, },
    "diplomacyNegativeChance":{ "hegemony":1.5, },
    
    "vengeanceLevelNames":["Grudge", "Punishment", "Vengeance"],
    "vengeanceFleetNames":["Livor", "Vindicta", "Ultio"],
    "vengeanceFleetNamesSingle":["a Livor fleet", "a Vindicta fleet", "an Ultio fleet"],
    
    "alignments":{
        "corporate":0,
        "technocratic":-0.5,
        "diplomatic":0,
        "militarist":1,
    },
    
    "startShipsSolo":["ii_decurion_sta"],
    "startShipsCombatSmall":["ii_praetorian_sta", "ii_wolf_i_cs", "ii_invictus_sta"],
    "startShipsTradeSmall":["ii_lynx_s_sta", "ii_decurion_str", "ii_basileus_f_sta"],
    "startShipsCombatLarge":["ii_malleus_art", "ii_interrex_bal", "ii_basileus_sup"],
    "startShipsTradeLarge":["ii_sebastos_f_art", "ii_lynx_sta", "ii_invictus_sup"],
    "startShipsCarrierLarge":["ii_sebastos_sta", "ii_princeps_art", "ii_decurion_sni"],
}