{
    "playableFaction":true,
    "pirateFaction":true,
    "corvusCompatible":true,
    "noHomeworld":true,
    "showIntelEvenIfDead":true,
    
    "spawnPatrols":true,
    #"spawnPiratesAndMercs":false,

    "customRebelFaction":"",
    "customRebelFleetId":"",
    "rebelFleetSuffix":"Rivals",
    
    "difficultyString":"hard",

    "positiveDiplomacyExtra":0,
    "negativeDiplomacyExtra":0,
    "factionsLiked":[],
    "factionsDisliked":[],
    
    "alignments":{
        "ideological":0.5,
    },
    
    "freeMarket":true,
    
    "vengeanceFleetNames":["Enforcers", "Hit-Fleet", "Horde"],
    "vengeanceFleetNamesSingle":["Enforcers", "a Hit-Fleet", "a Horde"],
    
    "startShipsSolo":["cerberus_Retrofitted"],
    #"startShipsSoloSSP":["ssp_scythe_bal"],
    "startShipsCombatSmall":["enforcer_CS", "buffalo2_FS", "hound_Standard"],
    "startShipsCombatSmallSSP":["ssp_boar_sta", "ssp_tiger_rai", "ssp_sidecar_punp"],   # lol Sidecar
    "startShipsTradeSmall":["mule_d_pirates_Standard", "brawler_Assault", "shepherd_Frontier"],
    "startShipsTradeSmallSSP":["mule_d_pirates_Standard", "ssp_venom_sta", "hermes_FS"],
    "startShipsCombatLarge":["falcon_CS", "enforcer_Balanced", "lasher_Standard"],
    "startShipsCombatLargeSSP":["ssp_barbarian_balp", "ssp_shark_rai", "ssp_scythe_sta"],
    "startShipsTradeLarge":["venture_Balanced", "buffalo_pirates_Standard", "cerberus_Standard"],
    "startShipsTradeLargeSSP":["ssp_stalker_sta", "buffalo_pirates_Standard", "ssp_venom_fas"],
    "startShipsCarrierSmall":["condor_Attack", "buffalo2_FS", "lasher_Standard"],
    
    "defenceStations":["nex_asgard_Pirate"],
}