{
    "playableFaction":true,
    "corvusCompatible":true,

    "baseFleetCostMultiplier":1.0,
    
    "directoryUseShortName":true,

    "customRebelFaction":"",
    "customRebelFleetId":"",
    "rebelFleetSuffix":"Splinter Group",

    "positiveDiplomacyExtra":0,
    "negativeDiplomacyExtra":0,
    "factionsLiked":[],
    "factionsDisliked":[],
    "morality":"good",

    "alignments":{
        "corporate":0.5,
        "technocratic":0.5,
        "diplomatic":1,
    },
    
    "vengeanceLevelNames":["Grudge", "Vendetta"],
    "vengeanceFleetNames":["Hunter Fleet", "Executors"],
    "vengeanceFleetNamesSingle":["a Hunter Fleet", "Executors"],
    
    "customStations":["station_shi_prana","station_shi_med"],
    
    "startShipsSolo":["ms_enlil_Balanced"],
    "startShipsCombatSmall":["ms_clade_Standard", "ms_inanna_Standard", "ms_seski_CS"],
    "startShipsTradeSmall":["ms_solidarity_Standard", "ms_belet-seri_CS", "ms_ashnan_Standard"],
    "startShipsCombatLarge":["ms_tartarus_Standard", "ms_morningstar_Standard", "ms_enlil_Balanced"],
    "startShipsTradeLarge":["ms_elysium_Standard", "ms_solidarity_Fast", "ms_seski_BR"],
    "startShipsCarrierSmall":["ms_sargasso_Balanced", "ms_enlil_AF", "ms_belet-seri_CS"],
    "startShipsCarrierLarge":["ms_charybdis_Attack", "ms_morningstar_CS", "ms_seski_LA"],
    
    "defenceStations":["nex_asgard_Advanced"],
}